…
                                  `REP` = "R", 
                                  `DEM` = "D")) %>%
  filter(candidate_party == "R" | candidate_party == "D") %>% #2020 election will not have independents, only top two advance
  group_by(question_id) %>%
  #arrange(question_id, candidate_party) %>%
  select(question_id, poll_id, fte_grade, sample_size, candidate_name, candidate_party, pct) %>%
  filter(question_id != 123442 & question_id != 123443) %>%
  mutate(spread = pct - pct[candidate_party == "D"]) %>%
  mutate(spread2 = pct - pct[candidate_party == "R"]) %>%
  mutate(actual_spread = spread + spread2) %>%
  select(-spread, -spread2)
boot_data
```

    ## # A tibble: 114 x 8
    ## # Groups:   question_id [57]
    ##    question_id poll_id fte_grade sample_size candidate_name candidate_party
    ##          <int>   <int> <fct>           <int> <fct>          <fct>          
    ##  1      135283   72146 A+                504 Jon Ossoff     D              
    ##  2      135283   72146 A+                504 David A. Perd… R              
    ##  3      135284   72146 A+                504 Jon Ossoff     D              
    ##  4      135284   72146 A+                504 David A. Perd… R              
    ##  5      135285   72146 A+                504 Jon Ossoff     D              
    ##  6      135285   72146 A+                504 David A. Perd… R              
    ##  7      135052   72040 B/C              1041 Jon Ossoff     D              
    ##  8      135052   72040 B/C              1041 David A. Perd… R              
    ##  9      134751   71888 B                1090 Jon Ossoff     D              
    ## 10      134751   71888 B                1090 David A. Perd… R              
    ## # … with 104 more rows, and 2 more variables: pct <dbl>, actual_spread <dbl>
…
